[{
    "avatar": "https://scontent.ftpe7-2.fna.fbcdn.net/v/t1.6435-9/159385610_1353766974998577_4533228104304801172_n.jpg?_nc_cat=111&ccb=1-5&_nc_sid=09cbfe&_nc_ohc=eX0fwBBOOzYAX87MgAB&_nc_ht=scontent.ftpe7-2.fna&oh=6a26b51b0207f71e7387c96de65c75fc&oe=61675F4C",
    "name": "安德魯的部落格",
    "introduction": "",
    "url": "https://columns.chicken-house.net/about/",
    "title": "前去學習"
}, {
    "avatar": "https://blog.miniasp.com/Custom/Themes/Standard-2015/images/logo.png",
    "name": "The Will Will Web",
    "introduction": "",
    "url": "https://blog.miniasp.com/",
    "title": "前去學習"
}, {
    "avatar": "https://scontent.ftpe7-4.fna.fbcdn.net/v/t1.6435-9/163484989_727983054531111_8464807985525779541_n.jpg?_nc_cat=101&ccb=1-5&_nc_sid=973b4a&_nc_ohc=ZtNH3e2AdrcAX8FPAPV&_nc_ht=scontent.ftpe7-4.fna&oh=9bd005eca52a2d218cf3740bf09691e4&oe=6166598E",
    "name": "黑暗執行緒",
    "introduction": "",
    "url": "https://blog.darkthread.net/",
    "title": "前去學習"
}, {
    "avatar": "https://3.bp.blogspot.com/-9BaH5aAD9vE/Wjtm-zp-voI/AAAAAAAAEwo/DcdqYUsUfO8Sed2gVKkpBSqvyuJH4zAqwCK4BGAYYCw/s113/10982486_935600816453238_6248105663312126791_n.jpg",
    "name": "m@rcus 學習筆記",
    "introduction": "",
    "url": "https://marcus116.blogspot.com/",
    "title": "前去學習"
}, {
    "avatar": "https://blackie1019.gitlab.io/medias/avatar.png",
    "name": "Blackie's Blog",
    "introduction": "",
    "url": "https://blackie1019.gitlab.io/",
    "title": "前去學習"
}, {
    "avatar": "https://blog.kennycoder.io/uploads/images/avatar.jpg",
    "name": "Kenny's Blog",
    "introduction": "",
    "url": "https://blog.kennycoder.io/",
    "title": "前去學習"
}]